Sateliitti EDA
…
  path <- paste0("data/emissions/",type,"/",type,"_",year,"-",month,".tif")
  try(r <- raster::raster(path))
  
  if(!return_as_tibble){
    return(r)
  }
  
  as_tibble(rasterToPoints(r)) %>% 
    mutate(date = lubridate::make_date(year, month, 1)) %>% 
    relocate(date)
}

read_satelite_data()

# A tibble: 789,611 × 4
   date           x     y CO_column_number_density
   <date>     <dbl> <dbl>                    <dbl>
 1 2021-08-01  27.9  70.1                   0.0387
 2 2021-08-01  27.9  70.1                   0.0388
 3 2021-08-01  27.9  70.1                   0.0388
 4 2021-08-01  27.9  70.1                   0.0388
 5 2021-08-01  27.9  70.1                   0.0389
 6 2021-08-01  27.9  70.1                   0.0389
 7 2021-08-01  27.9  70.1                   0.0389
 8 2021-08-01  28.0  70.1                   0.0388
 9 2021-08-01  28.0  70.1                   0.0388
10 2021-08-01  28.0  70.1                   0.0388
# … with 789,601 more rows
…
